{
  "images" : [
    {
      "idiom" : "universal",
      "filename" : "kisspng-english-cocker-spaniel-german-shepherd-puppy-ameri-english-springer-spaniel-5b2386ce2ee1d9.728358321529054926192.png",
      "scale" : "1x"
    },
    {
      "idiom" : "universal",
      "scale" : "2x"
    },
    {
      "idiom" : "universal",
      "scale" : "3x"
    }
  ],
  "info" : {
    "version" : 1,
    "author" : "xcode"
  }
}